Preflight,Standard Checklist
Interior Preflight,-----
Weather,Check
Hobbs & Tach Time,Record
Maintenance Status,Check
AROW Documents,Check
Weight and Balance for flight,Check
Control Lock,Remove
Fuel Selector,Both
Ignition Switch,Off
Avionics Master,Off
Master Switch,On
Flaps,Down
Fuel Gauges,Check
Pitot Heat,On
Lights,On
Lights,"Check (start at nose, to right wing)"
Pitot Heat,Check
Pitot Heat,Off
Lights,Off
Master Switch,Off
Am I missing anything?,"well, am I?"
Exterior Preflight,-----
Left Wing Fuel Sump,OK
Left Wheel / Tire / Brakes,OK
Left Flaps,OK
Left Aileron,OK
Left Wingtip,OK
Left Wingtip lights,OK
Left Leading Edge,OK
Fuel Overflow Vent,Clear
Left Wing tie down,remove
Pitot tube,Clear
Stall Warning Horn,Clear
Left Fuel Quantity,OK
Static Source Opening,Clear
Engine Cowling,Secure
Propeller,Smooth edges
Spinner,Secure
Alternator Belt,tight
Air Intake and engine condition,OK
Carburetor Intake,OK
Nose Wheel and Strut,OK
Oil Quantity,5 min - 8 max
Nose Fuel Sump,OK
Right Wing fuel quantity,Check
Right Wing Tie Down,Remove
Right Wing Leading Edge,Check
Right Wing tip,Check
Right Wingtip Lights,OK
RIght Wing Aileron,OK
Right Wing Flaps,OK
Right Wing Fuel Sump,OK
Right Tire / Wheel / Brake,OK
Right Fuselage Skin,OK
Right Tail Leading Edge,OK
Right Elevator,OK
Trim Tab,OK
Rudder,OK
Tail Tie-Down,Remove
Left Elevator,OK
Left Tail Leading Edge,OK
Left Fuselage Skin,OK
Baggage Door,OK
Antennas,2 Comm - 2 ILS - 2 RNAV/ADS-B - 1 Marker Beacon - 1 ELT
,
Before Starting Engine,Standard Checklist
Seatbelts,On
Doors,Closed and Latched
,
Starting the Engine,Standard Checklist
Fuel Selector,Both
Mixture,Full Rich
Carb Heat,Cold
Throttle,1/4 inch open
Circuit Breakers,All In
Avionics Master,Off
Beacon,On
Prime,As Required
Brakes,Hold
Master Switch,On
Propeller Area,Clear
Magnetos,On
Ignition Button,START (RELEASE WHEN ENGINE STARTS)
Throttle,1000
OIL PRESSURE,Green
Avionics Master,On
Mixture,Lean by 1 inch (if required)
Flaps,Up
Transponder,Standby
ATIS / AWOS,Listen
Altimiter,Set
Radio Check,Get
Navigation Lights,As Required
Taxi Light,As Required
Parking Brake,Off
Brakes,Test
,
Run Up,Standard Checklist
Position into wind,OK
Trim for takeoff,Set
Flight Controls,Free and Correct
Mixture,Full Rich
Throttle,1700 RPM
Oil Temperature,Green
Oil Pressure,Green
Ammeter,Positive Charge
Magnetos,Check - Max Drop: 125 RPM - Min Drop: 50 RPM
Carb Heat,Small Drop
Throttle,Idle
Carb Heat,Off
Throttle,1000 RPM
,
Before Takeoff,Standard Checklist
Cabins and doors,Closed and Locked
Flaps,As Required
Mixture,Full Rich
Carb Heat,Off
Clock,Set
Transponder,(is automatic)
Time Off,Mark
Pitot Heat,On
Announce Intent,OK
Scan Area for Aircraft,Check
,
Normal Take Off,Standard Checklist
Wing Flaps,O DEGREES
Carburetor Heat,Cold
Mixture,Full Rich
Rotate,55 - 60
CLIMB SPEED,75 TO 85 MPH
POWER,Full Throttle
Engine Instruments (3),"OK – Oil Pressure, Oil Temperature, Ammeter"
Airspeed,Alive
,
Normal Take Off,Take Off Checklist
Wing Flaps,O DEGREES
Carburetor Heat,Cold
Mixture,Full Rich
Rotate,55 - 60
CLIMB SPEED,75 TO 85 MPH
POWER,Full Throttle
Engine Instruments (3),"OK – Oil Pressure, Oil Temperature, Ammeter"
Airspeed,Alive
,
(Vx) Max Angle of Climb Take-Off,Take Off Checklist
WING FLAPS,10 DEGREES
CARBURETOR HEAT,COLD
BRAKES,APPLY
POWER,FULL THROTTLE
BRAKES,RELEASE
CLIMB SPEED,56 UNTIL ALL OBSTACLES ARE CLEARED
Flaps,Retract when able
,
Climb Out,Standard Checklist
Airspeed,70 - 80
Power,Full Throttle (keep RPMs below red line)
Mixture,Full Rich (Mixture may be leaned over 3000 Feet)
Trim,As Required
Landing Light,Off
Engine Guages (4),Green
,
Cruising,Standard Checklist
POWER,2200 TO 2400 RPM
TRIM,ADJUST
MIXTURE,LEAN FOR MAXIMUM RPM
Engine Guages (4),Green
Heading Indicator to Compass,Set
,
Let Down,Standard Checklist
Fuel Selector,Both
MIXTURE,Rich
CARBURETOR HEAT,On
POWER,As Desired
Engine Guages (4),Green
,
Before Landing,Standard Checklist
ATIS / AWOS,Get
Altimeter,Set
Engine Gauges (4),Green
Lights,As Required
Fuel Selector,Both
Mixture,Rich
Carburetor Heat,APPLY FULL HEAT BEFORE CLOSING THROTTLE
Seatbelts,On
Airspeed,"65 TO 75 (FLAPS UP), 60 TO 70 (FLAPS DOWN)"
,
Balked Landing,Landing Checklist
Power,Full Throttle
Carb Heat,Cold
Flaps,Retract to 20 Degrees
Upon reaching approx 65 knots,Retract flaps slowly
,
After Landing,Standard Checklist
Flaps,UP
Mixture,Lean as required
Cab Heat,Cold
Strobes,Off - Does 65813 have strobes?
Landing Light,As Required
Transponder,(is automatic)
Trim,Set for takeoff
,
Shutdown,Standard Checklist
Radios and Lights,Off
Mixture,Idle Cut-Off
Master Switch,Off
Magnetos,Off
,
Securing Aircraft,Standard Checklist
Parking Brake,Set
Control Lock,installed
Hobbs & Tach Time,Record
Pitot Tube Cover,install
Tie downs,All
Windows and doors,Secure
,
Emergency Checklist,
,
Engine Failure,Emergency Checklist
FLY THE AIRPLANE,FLY THE AIRPLANE!!!!!
Airspeed - Best Glide (flaps up),65
Airspeed - Best Glide (flaps down),60
Best Field,Locate
Fuel Selector,Both
Mixture,Full Rich
Throttle,Full
Carb Heat,On
Magnetos,Both
Primer,In and Locked
Declare Emergency,121.5
Execute Landing,Check
,
Emergency Landing Without Engine Power,Emergency Checklist
Mixture,Idle Cut-Off
Fuel Selector,Off
All Switches (Except Master),Off
Airspeed,70 – 80 (Flaps Up)
Extend flaps as necessary,Within Gliding Distance of Field
Airspeed,65  - 75 (Flaps Down)
Master Switch,Off
Unlatch Cabin Doors,Prior to final approach
Land,Slightly Tail-low attitude
Heavy Braking,While holding full up elevator
,
No Restart and Time Permits,Emergency Checklist
FLY THE AIRPLANE,FLY THE AIRPLANE
Maintain Best Glide Speed,65
Squawk,7700
Declare Emergency,121.5
Fuel Selector,Off
Mixture,Full Lean
Seatbelts,Secure
Flaps,As Required
Magnetos,Off
Master,Off
Unlatch Doors,Check
,
Icing,Emergency Checklist
Pitot Heat,On
Carb Heat,On
Cabin Heat and Defrost,On
Make 180 turn,check
Descend,As Required
Increase Engine Speed,check
DO NOT LOWER FLAPS,check
Land Faster,Check
